transcript
# Compile of SPI_Master_32bit.v was successful.
# Compile of SPI_Slave_32bit.v was successful.
# Compile of SPI_Top_Module.v was successful.
# Compile of SPI_Top_Module_tb.v was successful.
# 4 compiles, 0 failed with no errors.
vsim work.tb_SPI_Top_Module
# vsim work.tb_SPI_Top_Module 
# Start time: 23:15:47 on Apr 17,2025
# Loading work.tb_SPI_Top_Module
# Loading work.SPI_Top_Module
# Loading work.SPI_Master_32bit
# Loading work.SPI_Slave_32bit
add wave -position insertpoint sim:/tb_SPI_Top_Module/*
run
# Time | clk | rst | start | CS | SCLK | MOSI | MISO | Master_In | Master_Out
#   10 | 0   | 0   | 1     | 1  | 0    | 0    | 0    | a5a5a5a5      | 00000000
#   11 | 1   | 0   | 1     | 0  | 0    | 0    | 0    | a5a5a5a5      | 00000000
#   12 | 0   | 0   | 1     | 0  | 0    | 0    | 0    | a5a5a5a5      | 00000000
#   13 | 1   | 0   | 1     | 0  | 1    | 0    | 0    | a5a5a5a5      | 00000000
#   14 | 0   | 0   | 1     | 0  | 1    | 0    | 0    | a5a5a5a5      | 00000000
#   15 | 1   | 0   | 1     | 0  | 0    | 0    | 0    | a5a5a5a5      | 00000000
#   16 | 0   | 0   | 1     | 0  | 0    | 0    | 0    | a5a5a5a5      | 00000000
#   17 | 1   | 0   | 1     | 0  | 1    | 0    | 0    | a5a5a5a5      | 00000000
#   18 | 0   | 0   | 1     | 0  | 1    | 0    | 0    | a5a5a5a5      | 00000000
#   19 | 1   | 0   | 1     | 0  | 0    | 0    | 0    | a5a5a5a5      | 00000000
#   20 | 0   | 0   | 1     | 0  | 0    | 0    | 0    | a5a5a5a5      | 00000000
#   21 | 1   | 0   | 1     | 0  | 1    | 1    | 0    | a5a5a5a5      | 00000000
#   22 | 0   | 0   | 1     | 0  | 1    | 1    | 0    | a5a5a5a5      | 00000000
#   23 | 1   | 0   | 1     | 0  | 0    | 1    | 0    | a5a5a5a5      | 00000000
#   24 | 0   | 0   | 1     | 0  | 0    | 1    | 0    | a5a5a5a5      | 00000000
#   25 | 1   | 0   | 1     | 0  | 1    | 0    | 0    | a5a5a5a5      | 00000000
#   26 | 0   | 0   | 1     | 0  | 1    | 0    | 0    | a5a5a5a5      | 00000000
#   27 | 1   | 0   | 1     | 0  | 0    | 0    | 0    | a5a5a5a5      | 00000000
#   28 | 0   | 0   | 1     | 0  | 0    | 0    | 0    | a5a5a5a5      | 00000000
#   29 | 1   | 0   | 1     | 0  | 1    | 0    | 0    | a5a5a5a5      | 00000000
#   30 | 0   | 0   | 1     | 0  | 1    | 0    | 0    | a5a5a5a5      | 00000000
#   31 | 1   | 0   | 1     | 0  | 0    | 0    | 0    | a5a5a5a5      | 00000000
#   32 | 0   | 0   | 1     | 0  | 0    | 0    | 0    | a5a5a5a5      | 00000000
#   33 | 1   | 0   | 1     | 0  | 1    | 1    | 0    | a5a5a5a5      | 00000000
#   34 | 0   | 0   | 1     | 0  | 1    | 1    | 0    | a5a5a5a5      | 00000000
#   35 | 1   | 0   | 1     | 0  | 0    | 1    | 0    | a5a5a5a5      | 00000000
#   36 | 0   | 0   | 1     | 0  | 0    | 1    | 0    | a5a5a5a5      | 00000000
#   37 | 1   | 0   | 1     | 0  | 1    | 0    | 0    | a5a5a5a5      | 00000000
#   38 | 0   | 0   | 1     | 0  | 1    | 0    | 0    | a5a5a5a5      | 00000000
#   39 | 1   | 0   | 1     | 0  | 0    | 0    | 0    | a5a5a5a5      | 00000000
#   40 | 0   | 0   | 1     | 0  | 0    | 0    | 0    | a5a5a5a5      | 00000000
#   41 | 1   | 0   | 1     | 0  | 1    | 1    | 0    | a5a5a5a5      | 00000000
#   42 | 0   | 0   | 1     | 0  | 1    | 1    | 0    | a5a5a5a5      | 00000000
#   43 | 1   | 0   | 1     | 0  | 0    | 1    | 0    | a5a5a5a5      | 00000000
#   44 | 0   | 0   | 1     | 0  | 0    | 1    | 0    | a5a5a5a5      | 00000000
#   45 | 1   | 0   | 1     | 0  | 1    | 1    | 0    | a5a5a5a5      | 00000000
#   46 | 0   | 0   | 1     | 0  | 1    | 1    | 0    | a5a5a5a5      | 00000000
#   47 | 1   | 0   | 1     | 0  | 0    | 1    | 0    | a5a5a5a5      | 00000000
#   48 | 0   | 0   | 1     | 0  | 0    | 1    | 0    | a5a5a5a5      | 00000000
#   49 | 1   | 0   | 1     | 0  | 1    | 0    | 0    | a5a5a5a5      | 00000000
#   50 | 0   | 0   | 1     | 0  | 1    | 0    | 0    | a5a5a5a5      | 00000000
#   51 | 1   | 0   | 1     | 0  | 0    | 0    | 0    | a5a5a5a5      | 00000000
#   52 | 0   | 0   | 1     | 0  | 0    | 0    | 0    | a5a5a5a5      | 00000000
#   53 | 1   | 0   | 1     | 0  | 1    | 1    | 0    | a5a5a5a5      | 00000000
#   54 | 0   | 0   | 1     | 0  | 1    | 1    | 0    | a5a5a5a5      | 00000000
#   55 | 1   | 0   | 1     | 0  | 0    | 1    | 0    | a5a5a5a5      | 00000000
#   56 | 0   | 0   | 1     | 0  | 0    | 1    | 0    | a5a5a5a5      | 00000000
#   57 | 1   | 0   | 1     | 0  | 1    | 0    | 0    | a5a5a5a5      | 00000000
#   58 | 0   | 0   | 1     | 0  | 1    | 0    | 0    | a5a5a5a5      | 00000000
#   59 | 1   | 0   | 1     | 0  | 0    | 0    | 0    | a5a5a5a5      | 00000000
#   60 | 0   | 0   | 1     | 0  | 0    | 0    | 0    | a5a5a5a5      | 00000000
#   61 | 1   | 0   | 1     | 0  | 1    | 0    | 0    | a5a5a5a5      | 00000000
#   62 | 0   | 0   | 1     | 0  | 1    | 0    | 0    | a5a5a5a5      | 00000000
#   63 | 1   | 0   | 1     | 0  | 0    | 0    | 0    | a5a5a5a5      | 00000000
#   64 | 0   | 0   | 1     | 0  | 0    | 0    | 0    | a5a5a5a5      | 00000000
#   65 | 1   | 0   | 1     | 0  | 1    | 1    | 0    | a5a5a5a5      | 00000000
#   66 | 0   | 0   | 1     | 0  | 1    | 1    | 0    | a5a5a5a5      | 00000000
#   67 | 1   | 0   | 1     | 0  | 0    | 1    | 0    | a5a5a5a5      | 00000000
#   68 | 0   | 0   | 1     | 0  | 0    | 1    | 0    | a5a5a5a5      | 00000000
#   69 | 1   | 0   | 1     | 0  | 1    | 0    | 0    | a5a5a5a5      | 00000000
#   70 | 0   | 0   | 1     | 0  | 1    | 0    | 0    | a5a5a5a5      | 00000000
#   71 | 1   | 0   | 1     | 0  | 0    | 0    | 0    | a5a5a5a5      | 00000000
#   72 | 0   | 0   | 1     | 0  | 0    | 0    | 0    | a5a5a5a5      | 00000000
#   73 | 1   | 0   | 1     | 0  | 1    | 1    | 0    | a5a5a5a5      | 00000000
#   74 | 0   | 0   | 1     | 0  | 1    | 1    | 0    | a5a5a5a5      | 00000000
#   75 | 1   | 0   | 1     | 0  | 0    | 1    | 0    | a5a5a5a5      | 00000000
#   76 | 0   | 0   | 1     | 0  | 0    | 1    | 0    | a5a5a5a5      | 00000000
#   77 | 1   | 0   | 1     | 0  | 1    | 1    | 0    | a5a5a5a5      | 00000000
#   78 | 0   | 0   | 1     | 0  | 1    | 1    | 0    | a5a5a5a5      | 00000000
#   79 | 1   | 0   | 1     | 0  | 0    | 1    | 0    | a5a5a5a5      | 00000000
#   80 | 0   | 0   | 1     | 0  | 0    | 1    | 0    | a5a5a5a5      | 00000000
#   81 | 1   | 0   | 1     | 0  | 1    | 0    | 0    | a5a5a5a5      | 00000000
#   82 | 0   | 0   | 1     | 0  | 1    | 0    | 0    | a5a5a5a5      | 00000000
#   83 | 1   | 0   | 1     | 0  | 0    | 0    | 0    | a5a5a5a5      | 00000000
#   84 | 0   | 0   | 1     | 0  | 0    | 0    | 0    | a5a5a5a5      | 00000000
#   85 | 1   | 0   | 1     | 0  | 1    | 1    | 0    | a5a5a5a5      | 00000000
#   86 | 0   | 0   | 1     | 0  | 1    | 1    | 0    | a5a5a5a5      | 00000000
#   87 | 1   | 0   | 1     | 0  | 0    | 1    | 0    | a5a5a5a5      | 00000000
#   88 | 0   | 0   | 1     | 0  | 0    | 1    | 0    | a5a5a5a5      | 00000000
#   89 | 1   | 0   | 1     | 0  | 1    | 0    | 0    | a5a5a5a5      | 00000000
#   90 | 0   | 0   | 1     | 0  | 1    | 0    | 0    | a5a5a5a5      | 00000000
#   91 | 1   | 0   | 1     | 0  | 0    | 0    | 0    | a5a5a5a5      | 00000000
#   92 | 0   | 0   | 1     | 0  | 0    | 0    | 0    | a5a5a5a5      | 00000000
#   93 | 1   | 0   | 1     | 0  | 1    | 0    | 0    | a5a5a5a5      | 00000000
#   94 | 0   | 0   | 1     | 0  | 1    | 0    | 0    | a5a5a5a5      | 00000000
#   95 | 1   | 0   | 1     | 0  | 0    | 0    | 0    | a5a5a5a5      | 00000000
#   96 | 0   | 0   | 1     | 0  | 0    | 0    | 0    | a5a5a5a5      | 00000000
#   97 | 1   | 0   | 1     | 0  | 1    | 1    | 0    | a5a5a5a5      | 00000000
#   98 | 0   | 0   | 1     | 0  | 1    | 1    | 0    | a5a5a5a5      | 00000000
#   99 | 1   | 0   | 1     | 0  | 0    | 1    | 0    | a5a5a5a5      | 00000000
#  100 | 0   | 0   | 1     | 0  | 0    | 1    | 0    | a5a5a5a5      | 00000000
#  101 | 1   | 0   | 1     | 0  | 1    | 0    | 0    | a5a5a5a5      | 00000000
#  102 | 0   | 0   | 1     | 0  | 1    | 0    | 0    | a5a5a5a5      | 00000000
#  103 | 1   | 0   | 1     | 0  | 0    | 0    | 0    | a5a5a5a5      | 00000000
#  104 | 0   | 0   | 1     | 0  | 0    | 0    | 0    | a5a5a5a5      | 00000000
#  105 | 1   | 0   | 1     | 0  | 1    | 1    | 0    | a5a5a5a5      | 00000000
#  106 | 0   | 0   | 1     | 0  | 1    | 1    | 0    | a5a5a5a5      | 00000000
#  107 | 1   | 0   | 1     | 0  | 0    | 1    | 0    | a5a5a5a5      | 00000000
#  108 | 0   | 0   | 1     | 0  | 0    | 1    | 0    | a5a5a5a5      | 00000000
#  109 | 1   | 0   | 1     | 0  | 1    | 1    | 0    | a5a5a5a5      | 00000000
#  110 | 0   | 0   | 0     | 0  | 1    | 1    | 0    | a5a5a5a5      | 00000000
#  111 | 1   | 0   | 0     | 0  | 0    | 1    | 0    | a5a5a5a5      | 00000000
#  112 | 0   | 0   | 0     | 0  | 0    | 1    | 0    | a5a5a5a5      | 00000000
#  113 | 1   | 0   | 0     | 0  | 1    | 0    | 0    | a5a5a5a5      | 00000000
#  114 | 0   | 0   | 0     | 0  | 1    | 0    | 0    | a5a5a5a5      | 00000000
#  115 | 1   | 0   | 0     | 0  | 0    | 0    | 0    | a5a5a5a5      | 00000000
#  116 | 0   | 0   | 0     | 0  | 0    | 0    | 0    | a5a5a5a5      | 00000000
#  117 | 1   | 0   | 0     | 0  | 1    | 1    | 0    | a5a5a5a5      | 00000000
#  118 | 0   | 0   | 0     | 0  | 1    | 1    | 0    | a5a5a5a5      | 00000000
#  119 | 1   | 0   | 0     | 0  | 0    | 1    | 0    | a5a5a5a5      | 00000000
#  120 | 0   | 0   | 0     | 0  | 0    | 1    | 0    | a5a5a5a5      | 00000000
#  121 | 1   | 0   | 0     | 0  | 1    | 0    | 0    | a5a5a5a5      | 00000000
#  122 | 0   | 0   | 0     | 0  | 1    | 0    | 0    | a5a5a5a5      | 00000000
#  123 | 1   | 0   | 0     | 0  | 0    | 0    | 0    | a5a5a5a5      | 00000000
#  124 | 0   | 0   | 0     | 0  | 0    | 0    | 0    | a5a5a5a5      | 00000000
#  125 | 1   | 0   | 0     | 0  | 1    | 0    | 0    | a5a5a5a5      | 00000000
#  126 | 0   | 0   | 0     | 0  | 1    | 0    | 0    | a5a5a5a5      | 00000000
#  127 | 1   | 0   | 0     | 0  | 0    | 0    | 0    | a5a5a5a5      | 00000000
#  128 | 0   | 0   | 0     | 0  | 0    | 0    | 0    | a5a5a5a5      | 00000000
#  129 | 1   | 0   | 0     | 0  | 1    | 1    | 0    | a5a5a5a5      | 00000000
#  130 | 0   | 0   | 0     | 0  | 1    | 1    | 0    | a5a5a5a5      | 00000000
#  131 | 1   | 0   | 0     | 0  | 0    | 1    | 0    | a5a5a5a5      | 00000000
#  132 | 0   | 0   | 0     | 0  | 0    | 1    | 0    | a5a5a5a5      | 00000000
#  133 | 1   | 0   | 0     | 0  | 1    | 0    | 0    | a5a5a5a5      | 00000000
#  134 | 0   | 0   | 0     | 0  | 1    | 0    | 0    | a5a5a5a5      | 00000000
#  135 | 1   | 0   | 0     | 0  | 0    | 0    | 0    | a5a5a5a5      | 00000000
#  136 | 0   | 0   | 0     | 0  | 0    | 0    | 0    | a5a5a5a5      | 00000000
#  137 | 1   | 0   | 0     | 0  | 1    | 1    | 0    | a5a5a5a5      | 00000000
#  138 | 0   | 0   | 0     | 0  | 1    | 1    | 0    | a5a5a5a5      | 00000000
#  139 | 1   | 0   | 0     | 0  | 0    | 1    | 0    | a5a5a5a5      | 00000000
#  140 | 0   | 0   | 0     | 0  | 0    | 1    | 0    | a5a5a5a5      | 00000000
#  141 | 1   | 0   | 0     | 1  | 0    | 0    | 0    | a5a5a5a5      | 25a5a5a5
#  142 | 0   | 0   | 0     | 1  | 0    | 0    | 0    | a5a5a5a5      | 25a5a5a5
#  143 | 1   | 0   | 0     | 1  | 0    | 0    | 0    | a5a5a5a5      | 25a5a5a5
#  144 | 0   | 0   | 0     | 1  | 0    | 0    | 0    | a5a5a5a5      | 25a5a5a5
#  145 | 1   | 0   | 0     | 1  | 0    | 0    | 0    | a5a5a5a5      | 25a5a5a5
#  146 | 0   | 0   | 0     | 1  | 0    | 0    | 0    | a5a5a5a5      | 25a5a5a5
#  147 | 1   | 0   | 0     | 1  | 0    | 0    | 0    | a5a5a5a5      | 25a5a5a5
#  148 | 0   | 0   | 0     | 1  | 0    | 0    | 0    | a5a5a5a5      | 25a5a5a5
#  149 | 1   | 0   | 0     | 1  | 0    | 0    | 0    | a5a5a5a5      | 25a5a5a5
#  150 | 0   | 0   | 0     | 1  | 0    | 0    | 0    | a5a5a5a5      | 25a5a5a5
#  151 | 1   | 0   | 0     | 1  | 0    | 0    | 0    | a5a5a5a5      | 25a5a5a5
#  152 | 0   | 0   | 0     | 1  | 0    | 0    | 0    | a5a5a5a5      | 25a5a5a5
#  153 | 1   | 0   | 0     | 1  | 0    | 0    | 0    | a5a5a5a5      | 25a5a5a5
#  154 | 0   | 0   | 0     | 1  | 0    | 0    | 0    | a5a5a5a5      | 25a5a5a5
#  155 | 1   | 0   | 0     | 1  | 0    | 0    | 0    | a5a5a5a5      | 25a5a5a5
#  156 | 0   | 0   | 0     | 1  | 0    | 0    | 0    | a5a5a5a5      | 25a5a5a5
#  157 | 1   | 0   | 0     | 1  | 0    | 0    | 0    | a5a5a5a5      | 25a5a5a5
#  158 | 0   | 0   | 0     | 1  | 0    | 0    | 0    | a5a5a5a5      | 25a5a5a5
#  159 | 1   | 0   | 0     | 1  | 0    | 0    | 0    | a5a5a5a5      | 25a5a5a5
#  160 | 0   | 0   | 0     | 1  | 0    | 0    | 0    | a5a5a5a5      | 25a5a5a5
#  161 | 1   | 0   | 0     | 1  | 0    | 0    | 0    | a5a5a5a5      | 25a5a5a5
#  162 | 0   | 0   | 0     | 1  | 0    | 0    | 0    | a5a5a5a5      | 25a5a5a5
#  163 | 1   | 0   | 0     | 1  | 0    | 0    | 0    | a5a5a5a5      | 25a5a5a5
#  164 | 0   | 0   | 0     | 1  | 0    | 0    | 0    | a5a5a5a5      | 25a5a5a5
#  165 | 1   | 0   | 0     | 1  | 0    | 0    | 0    | a5a5a5a5      | 25a5a5a5
#  166 | 0   | 0   | 0     | 1  | 0    | 0    | 0    | a5a5a5a5      | 25a5a5a5
#  167 | 1   | 0   | 0     | 1  | 0    | 0    | 0    | a5a5a5a5      | 25a5a5a5
#  168 | 0   | 0   | 0     | 1  | 0    | 0    | 0    | a5a5a5a5      | 25a5a5a5
#  169 | 1   | 0   | 0     | 1  | 0    | 0    | 0    | a5a5a5a5      | 25a5a5a5
#  170 | 0   | 0   | 0     | 1  | 0    | 0    | 0    | a5a5a5a5      | 25a5a5a5
#  171 | 1   | 0   | 0     | 1  | 0    | 0    | 0    | a5a5a5a5      | 25a5a5a5
#  172 | 0   | 0   | 0     | 1  | 0    | 0    | 0    | a5a5a5a5      | 25a5a5a5
#  173 | 1   | 0   | 0     | 1  | 0    | 0    | 0    | a5a5a5a5      | 25a5a5a5
#  174 | 0   | 0   | 0     | 1  | 0    | 0    | 0    | a5a5a5a5      | 25a5a5a5
#  175 | 1   | 0   | 0     | 1  | 0    | 0    | 0    | a5a5a5a5      | 25a5a5a5
#  176 | 0   | 0   | 0     | 1  | 0    | 0    | 0    | a5a5a5a5      | 25a5a5a5
#  177 | 1   | 0   | 0     | 1  | 0    | 0    | 0    | a5a5a5a5      | 25a5a5a5
#  178 | 0   | 0   | 0     | 1  | 0    | 0    | 0    | a5a5a5a5      | 25a5a5a5
#  179 | 1   | 0   | 0     | 1  | 0    | 0    | 0    | a5a5a5a5      | 25a5a5a5
#  180 | 0   | 0   | 0     | 1  | 0    | 0    | 0    | a5a5a5a5      | 25a5a5a5
#  181 | 1   | 0   | 0     | 1  | 0    | 0    | 0    | a5a5a5a5      | 25a5a5a5
#  182 | 0   | 0   | 0     | 1  | 0    | 0    | 0    | a5a5a5a5      | 25a5a5a5
#  183 | 1   | 0   | 0     | 1  | 0    | 0    | 0    | a5a5a5a5      | 25a5a5a5
#  184 | 0   | 0   | 0     | 1  | 0    | 0    | 0    | a5a5a5a5      | 25a5a5a5
#  185 | 1   | 0   | 0     | 1  | 0    | 0    | 0    | a5a5a5a5      | 25a5a5a5
#  186 | 0   | 0   | 0     | 1  | 0    | 0    | 0    | a5a5a5a5      | 25a5a5a5
#  187 | 1   | 0   | 0     | 1  | 0    | 0    | 0    | a5a5a5a5      | 25a5a5a5
#  188 | 0   | 0   | 0     | 1  | 0    | 0    | 0    | a5a5a5a5      | 25a5a5a5
#  189 | 1   | 0   | 0     | 1  | 0    | 0    | 0    | a5a5a5a5      | 25a5a5a5
#  190 | 0   | 0   | 0     | 1  | 0    | 0    | 0    | a5a5a5a5      | 25a5a5a5
#  191 | 1   | 0   | 0     | 1  | 0    | 0    | 0    | a5a5a5a5      | 25a5a5a5
#  192 | 0   | 0   | 0     | 1  | 0    | 0    | 0    | a5a5a5a5      | 25a5a5a5
#  193 | 1   | 0   | 0     | 1  | 0    | 0    | 0    | a5a5a5a5      | 25a5a5a5
#  194 | 0   | 0   | 0     | 1  | 0    | 0    | 0    | a5a5a5a5      | 25a5a5a5
#  195 | 1   | 0   | 0     | 1  | 0    | 0    | 0    | a5a5a5a5      | 25a5a5a5
#  196 | 0   | 0   | 0     | 1  | 0    | 0    | 0    | a5a5a5a5      | 25a5a5a5
#  197 | 1   | 0   | 0     | 1  | 0    | 0    | 0    | a5a5a5a5      | 25a5a5a5
#  198 | 0   | 0   | 0     | 1  | 0    | 0    | 0    | a5a5a5a5      | 25a5a5a5
#  199 | 1   | 0   | 0     | 1  | 0    | 0    | 0    | a5a5a5a5      | 25a5a5a5
#  200 | 0   | 0   | 0     | 1  | 0    | 0    | 0    | a5a5a5a5      | 25a5a5a5
#  201 | 1   | 0   | 0     | 1  | 0    | 0    | 0    | a5a5a5a5      | 25a5a5a5
#  202 | 0   | 0   | 0     | 1  | 0    | 0    | 0    | a5a5a5a5      | 25a5a5a5
#  203 | 1   | 0   | 0     | 1  | 0    | 0    | 0    | a5a5a5a5      | 25a5a5a5
#  204 | 0   | 0   | 0     | 1  | 0    | 0    | 0    | a5a5a5a5      | 25a5a5a5
#  205 | 1   | 0   | 0     | 1  | 0    | 0    | 0    | a5a5a5a5      | 25a5a5a5
#  206 | 0   | 0   | 0     | 1  | 0    | 0    | 0    | a5a5a5a5      | 25a5a5a5
#  207 | 1   | 0   | 0     | 1  | 0    | 0    | 0    | a5a5a5a5      | 25a5a5a5
#  208 | 0   | 0   | 0     | 1  | 0    | 0    | 0    | a5a5a5a5      | 25a5a5a5
#  209 | 1   | 0   | 0     | 1  | 0    | 0    | 0    | a5a5a5a5      | 25a5a5a5
#  210 | 0   | 0   | 0     | 1  | 0    | 0    | 0    | a5a5a5a5      | 25a5a5a5
#  211 | 1   | 0   | 0     | 1  | 0    | 0    | 0    | a5a5a5a5      | 25a5a5a5
#  212 | 0   | 0   | 0     | 1  | 0    | 0    | 0    | a5a5a5a5      | 25a5a5a5
#  213 | 1   | 0   | 0     | 1  | 0    | 0    | 0    | a5a5a5a5      | 25a5a5a5
#  214 | 0   | 0   | 0     | 1  | 0    | 0    | 0    | a5a5a5a5      | 25a5a5a5
#  215 | 1   | 0   | 0     | 1  | 0    | 0    | 0    | a5a5a5a5      | 25a5a5a5
#  216 | 0   | 0   | 0     | 1  | 0    | 0    | 0    | a5a5a5a5      | 25a5a5a5
#  217 | 1   | 0   | 0     | 1  | 0    | 0    | 0    | a5a5a5a5      | 25a5a5a5
#  218 | 0   | 0   | 0     | 1  | 0    | 0    | 0    | a5a5a5a5      | 25a5a5a5
#  219 | 1   | 0   | 0     | 1  | 0    | 0    | 0    | a5a5a5a5      | 25a5a5a5
#  220 | 0   | 0   | 0     | 1  | 0    | 0    | 0    | a5a5a5a5      | 25a5a5a5
#  221 | 1   | 0   | 0     | 1  | 0    | 0    | 0    | a5a5a5a5      | 25a5a5a5
#  222 | 0   | 0   | 0     | 1  | 0    | 0    | 0    | a5a5a5a5      | 25a5a5a5
#  223 | 1   | 0   | 0     | 1  | 0    | 0    | 0    | a5a5a5a5      | 25a5a5a5
#  224 | 0   | 0   | 0     | 1  | 0    | 0    | 0    | a5a5a5a5      | 25a5a5a5
#  225 | 1   | 0   | 0     | 1  | 0    | 0    | 0    | a5a5a5a5      | 25a5a5a5
#  226 | 0   | 0   | 0     | 1  | 0    | 0    | 0    | a5a5a5a5      | 25a5a5a5
#  227 | 1   | 0   | 0     | 1  | 0    | 0    | 0    | a5a5a5a5      | 25a5a5a5
#  228 | 0   | 0   | 0     | 1  | 0    | 0    | 0    | a5a5a5a5      | 25a5a5a5
#  229 | 1   | 0   | 0     | 1  | 0    | 0    | 0    | a5a5a5a5      | 25a5a5a5
#  230 | 0   | 0   | 0     | 1  | 0    | 0    | 0    | a5a5a5a5      | 25a5a5a5
#  231 | 1   | 0   | 0     | 1  | 0    | 0    | 0    | a5a5a5a5      | 25a5a5a5
#  232 | 0   | 0   | 0     | 1  | 0    | 0    | 0    | a5a5a5a5      | 25a5a5a5
#  233 | 1   | 0   | 0     | 1  | 0    | 0    | 0    | a5a5a5a5      | 25a5a5a5
#  234 | 0   | 0   | 0     | 1  | 0    | 0    | 0    | a5a5a5a5      | 25a5a5a5
#  235 | 1   | 0   | 0     | 1  | 0    | 0    | 0    | a5a5a5a5      | 25a5a5a5
#  236 | 0   | 0   | 0     | 1  | 0    | 0    | 0    | a5a5a5a5      | 25a5a5a5
#  237 | 1   | 0   | 0     | 1  | 0    | 0    | 0    | a5a5a5a5      | 25a5a5a5
#  238 | 0   | 0   | 0     | 1  | 0    | 0    | 0    | a5a5a5a5      | 25a5a5a5
#  239 | 1   | 0   | 0     | 1  | 0    | 0    | 0    | a5a5a5a5      | 25a5a5a5
#  240 | 0   | 0   | 0     | 1  | 0    | 0    | 0    | a5a5a5a5      | 25a5a5a5
#  241 | 1   | 0   | 0     | 1  | 0    | 0    | 0    | a5a5a5a5      | 25a5a5a5
#  242 | 0   | 0   | 0     | 1  | 0    | 0    | 0    | a5a5a5a5      | 25a5a5a5
#  243 | 1   | 0   | 0     | 1  | 0    | 0    | 0    | a5a5a5a5      | 25a5a5a5
#  244 | 0   | 0   | 0     | 1  | 0    | 0    | 0    | a5a5a5a5      | 25a5a5a5
#  245 | 1   | 0   | 0     | 1  | 0    | 0    | 0    | a5a5a5a5      | 25a5a5a5
#  246 | 0   | 0   | 0     | 1  | 0    | 0    | 0    | a5a5a5a5      | 25a5a5a5
#  247 | 1   | 0   | 0     | 1  | 0    | 0    | 0    | a5a5a5a5      | 25a5a5a5
#  248 | 0   | 0   | 0     | 1  | 0    | 0    | 0    | a5a5a5a5      | 25a5a5a5
#  249 | 1   | 0   | 0     | 1  | 0    | 0    | 0    | a5a5a5a5      | 25a5a5a5
#  250 | 0   | 0   | 0     | 1  | 0    | 0    | 0    | a5a5a5a5      | 25a5a5a5
#  251 | 1   | 0   | 0     | 1  | 0    | 0    | 0    | a5a5a5a5      | 25a5a5a5
#  252 | 0   | 0   | 0     | 1  | 0    | 0    | 0    | a5a5a5a5      | 25a5a5a5
#  253 | 1   | 0   | 0     | 1  | 0    | 0    | 0    | a5a5a5a5      | 25a5a5a5
#  254 | 0   | 0   | 0     | 1  | 0    | 0    | 0    | a5a5a5a5      | 25a5a5a5
#  255 | 1   | 0   | 0     | 1  | 0    | 0    | 0    | a5a5a5a5      | 25a5a5a5
#  256 | 0   | 0   | 0     | 1  | 0    | 0    | 0    | a5a5a5a5      | 25a5a5a5
#  257 | 1   | 0   | 0     | 1  | 0    | 0    | 0    | a5a5a5a5      | 25a5a5a5
#  258 | 0   | 0   | 0     | 1  | 0    | 0    | 0    | a5a5a5a5      | 25a5a5a5
#  259 | 1   | 0   | 0     | 1  | 0    | 0    | 0    | a5a5a5a5      | 25a5a5a5
#  260 | 0   | 0   | 0     | 1  | 0    | 0    | 0    | a5a5a5a5      | 25a5a5a5
#  261 | 1   | 0   | 0     | 1  | 0    | 0    | 0    | a5a5a5a5      | 25a5a5a5
#  262 | 0   | 0   | 0     | 1  | 0    | 0    | 0    | a5a5a5a5      | 25a5a5a5
#  263 | 1   | 0   | 0     | 1  | 0    | 0    | 0    | a5a5a5a5      | 25a5a5a5
#  264 | 0   | 0   | 0     | 1  | 0    | 0    | 0    | a5a5a5a5      | 25a5a5a5
#  265 | 1   | 0   | 0     | 1  | 0    | 0    | 0    | a5a5a5a5      | 25a5a5a5
#  266 | 0   | 0   | 0     | 1  | 0    | 0    | 0    | a5a5a5a5      | 25a5a5a5
#  267 | 1   | 0   | 0     | 1  | 0    | 0    | 0    | a5a5a5a5      | 25a5a5a5
#  268 | 0   | 0   | 0     | 1  | 0    | 0    | 0    | a5a5a5a5      | 25a5a5a5
#  269 | 1   | 0   | 0     | 1  | 0    | 0    | 0    | a5a5a5a5      | 25a5a5a5
#  270 | 0   | 0   | 0     | 1  | 0    | 0    | 0    | a5a5a5a5      | 25a5a5a5
#  271 | 1   | 0   | 0     | 1  | 0    | 0    | 0    | a5a5a5a5      | 25a5a5a5
#  272 | 0   | 0   | 0     | 1  | 0    | 0    | 0    | a5a5a5a5      | 25a5a5a5
#  273 | 1   | 0   | 0     | 1  | 0    | 0    | 0    | a5a5a5a5      | 25a5a5a5
#  274 | 0   | 0   | 0     | 1  | 0    | 0    | 0    | a5a5a5a5      | 25a5a5a5
#  275 | 1   | 0   | 0     | 1  | 0    | 0    | 0    | a5a5a5a5      | 25a5a5a5
#  276 | 0   | 0   | 0     | 1  | 0    | 0    | 0    | a5a5a5a5      | 25a5a5a5
#  277 | 1   | 0   | 0     | 1  | 0    | 0    | 0    | a5a5a5a5      | 25a5a5a5
#  278 | 0   | 0   | 0     | 1  | 0    | 0    | 0    | a5a5a5a5      | 25a5a5a5
#  279 | 1   | 0   | 0     | 1  | 0    | 0    | 0    | a5a5a5a5      | 25a5a5a5
#  280 | 0   | 0   | 0     | 1  | 0    | 0    | 0    | a5a5a5a5      | 25a5a5a5
#  281 | 1   | 0   | 0     | 1  | 0    | 0    | 0    | a5a5a5a5      | 25a5a5a5
#  282 | 0   | 0   | 0     | 1  | 0    | 0    | 0    | a5a5a5a5      | 25a5a5a5
#  283 | 1   | 0   | 0     | 1  | 0    | 0    | 0    | a5a5a5a5      | 25a5a5a5
#  284 | 0   | 0   | 0     | 1  | 0    | 0    | 0    | a5a5a5a5      | 25a5a5a5
#  285 | 1   | 0   | 0     | 1  | 0    | 0    | 0    | a5a5a5a5      | 25a5a5a5
#  286 | 0   | 0   | 0     | 1  | 0    | 0    | 0    | a5a5a5a5      | 25a5a5a5
#  287 | 1   | 0   | 0     | 1  | 0    | 0    | 0    | a5a5a5a5      | 25a5a5a5
#  288 | 0   | 0   | 0     | 1  | 0    | 0    | 0    | a5a5a5a5      | 25a5a5a5
#  289 | 1   | 0   | 0     | 1  | 0    | 0    | 0    | a5a5a5a5      | 25a5a5a5
#  290 | 0   | 0   | 0     | 1  | 0    | 0    | 0    | a5a5a5a5      | 25a5a5a5
#  291 | 1   | 0   | 0     | 1  | 0    | 0    | 0    | a5a5a5a5      | 25a5a5a5
#  292 | 0   | 0   | 0     | 1  | 0    | 0    | 0    | a5a5a5a5      | 25a5a5a5
#  293 | 1   | 0   | 0     | 1  | 0    | 0    | 0    | a5a5a5a5      | 25a5a5a5
#  294 | 0   | 0   | 0     | 1  | 0    | 0    | 0    | a5a5a5a5      | 25a5a5a5
#  295 | 1   | 0   | 0     | 1  | 0    | 0    | 0    | a5a5a5a5      | 25a5a5a5
#  296 | 0   | 0   | 0     | 1  | 0    | 0    | 0    | a5a5a5a5      | 25a5a5a5
#  297 | 1   | 0   | 0     | 1  | 0    | 0    | 0    | a5a5a5a5      | 25a5a5a5
#  298 | 0   | 0   | 0     | 1  | 0    | 0    | 0    | a5a5a5a5      | 25a5a5a5
#  299 | 1   | 0   | 0     | 1  | 0    | 0    | 0    | a5a5a5a5      | 25a5a5a5
#  300 | 0   | 0   | 0     | 1  | 0    | 0    | 0    | a5a5a5a5      | 25a5a5a5
#  301 | 1   | 0   | 0     | 1  | 0    | 0    | 0    | a5a5a5a5      | 25a5a5a5
